<?xml version="1.0" encoding="UTF-8" standalone="no"?>
<svg width="90px" height="90px" viewBox="0 0 90 90" version="1.1" xmlns="http://www.w3.org/2000/svg" xmlns:xlink="http://www.w3.org/1999/xlink">
    <!-- Generator: Sketch 3.6.1 (26313) - http://www.bohemiancoding.com/sketch -->
    <title>Group</title>
    <desc>Created with Sketch.</desc>
    <defs></defs>
    <g id="Page-1" stroke="none" stroke-width="1" fill="none" fill-rule="evenodd">
        <g id="hotdog" transform="translate(-908.000000, -440.000000)" fill="#000000">
            <g id="Group" transform="translate(908.000000, 440.000000)">
                <path d="M86.6,19.7 C87,18.3 87.2,16.9 87.1,15.4 C87,11.4 85.3,7.8 82.4,5.2 C79.7,2.8 76.3,1.5 72.7,1.5 C71.1,1.5 69.6,1.8 68.1,2.2 C65.2,0.8 62,0 58.6,0 C52.8,0 47.4,2.2 43.4,6.3 L6.3,43.4 C-0.2,49.9 -1.7,59.7 2,67.6 C-0.5,72.7 0.1,78.8 4,83.3 C6.7,86.4 10.6,88.1 14.8,88.1 C16.8,88.1 18.7,87.7 20.5,87 C23.8,88.9 27.5,90 31.5,90 C37.3,90 42.7,87.8 46.7,83.7 L83.8,46.6 C91,39.3 92,28 86.6,19.7 L86.6,19.7 Z M10.3,47.4 L47.4,10.3 C50.5,7.2 54.6,5.7 58.6,5.7 C59.8,5.7 60.9,5.8 62,6.1 L6.1,62.3 C4.9,57.1 6.3,51.4 10.3,47.4 L10.3,47.4 Z M21.5,81.5 C21.4,81.6 21.3,81.6 21.2,81.7 C21,81.8 20.8,82 20.6,82.1 C20.5,82.2 20.4,82.2 20.2,82.3 C20,82.4 19.8,82.5 19.7,82.6 C19.6,82.7 19.4,82.7 19.3,82.8 C19.1,82.9 18.9,83 18.8,83 C18.7,83.1 18.5,83.1 18.4,83.2 C18.2,83.3 18,83.3 17.9,83.4 C17.7,83.4 17.6,83.5 17.4,83.5 C17.2,83.5 17,83.6 16.9,83.6 C16.7,83.6 16.6,83.6 16.4,83.7 L16.4,83.7 C16.2,83.7 16,83.8 15.9,83.8 L15.4,83.8 L14.9,83.8 L14.3,83.8 L13.8,83.8 C13.6,83.8 13.4,83.7 13.2,83.7 C13,83.7 12.9,83.7 12.7,83.6 C12.5,83.6 12.3,83.5 12.2,83.5 C12,83.5 11.9,83.4 11.7,83.4 C11.5,83.3 11.3,83.3 11.2,83.2 C11.1,83.1 10.9,83.1 10.8,83 C10.6,82.9 10.4,82.8 10.3,82.7 C10.2,82.6 10,82.6 9.9,82.5 C9.7,82.4 9.5,82.3 9.4,82.2 C9.3,82.1 9.2,82.1 9,82 C8.8,81.9 8.6,81.7 8.4,81.5 C8.3,81.4 8.2,81.4 8.1,81.3 C7.8,81.1 7.6,80.8 7.3,80.5 C7.1,80.2 6.9,80 6.7,79.7 C6.3,79.2 6,78.6 5.7,78 C5.4,77.4 5.2,76.8 5.1,76.2 C4.8,75 4.8,73.7 5,72.4 C5.3,70.2 6.4,68.1 8.1,66.4 L65.4,8.9 C65.7,8.6 65.9,8.4 66.2,8.2 C66.3,8.1 66.4,8.1 66.5,8 C66.7,7.9 66.9,7.7 67.1,7.6 C67.2,7.5 67.3,7.5 67.5,7.4 C67.7,7.3 67.8,7.2 68,7.1 C68.1,7 68.3,7 68.4,6.9 C68.6,6.8 68.7,6.7 68.9,6.7 C69,6.6 69.2,6.6 69.3,6.5 C69.5,6.4 69.6,6.4 69.8,6.3 C69.9,6.3 70.1,6.2 70.2,6.2 C70.4,6.2 70.6,6.1 70.7,6.1 C70.8,6.1 71,6 71.1,6 C71.3,6 71.5,5.9 71.6,5.9 L72.1,5.9 L72.6,5.9 L73.1,5.9 L73.5,5.9 C73.7,5.9 73.8,5.9 74,6 C74.1,6 74.3,6 74.4,6.1 C74.6,6.1 74.7,6.2 74.9,6.2 C75,6.2 75.2,6.3 75.3,6.3 C75.5,6.3 75.6,6.4 75.8,6.5 C75.9,6.5 76.1,6.6 76.2,6.6 C76.4,6.7 76.5,6.7 76.7,6.8 C76.8,6.9 77,6.9 77.1,7 C77.3,7.1 77.4,7.2 77.6,7.3 C77.7,7.4 77.8,7.4 77.9,7.5 C78.1,7.6 78.3,7.7 78.4,7.9 C78.5,8 78.6,8 78.7,8.1 C79,8.3 79.2,8.5 79.5,8.7 C83.9,12.6 83.8,19.5 79.7,23.7 L22.3,80.8 C22.2,80.9 22,81 21.9,81.2 C21.7,81.3 21.6,81.4 21.5,81.5 L21.5,81.5 Z M79.7,42.6 L42.6,79.7 C39.5,82.8 35.4,84.3 31.4,84.3 C29.5,84.3 27.6,83.9 25.8,83.3 L82.8,26.3 C83,26.1 83.2,25.9 83.4,25.7 C85.4,31.4 84.3,38.1 79.7,42.6 L79.7,42.6 Z" id="Shape"></path>
                <path d="M27.7,63.4 C27.4,61.5 27.4,60.7 28.2,59.9 C29,59.1 29.8,59.2 31.7,59.5 C33.7,59.8 36.5,60.2 38.8,57.9 C41.1,55.6 40.7,52.8 40.4,50.8 C40.1,48.9 40.1,48.1 40.8,47.3 C41.6,46.5 42.4,46.6 44.3,46.9 C46.3,47.2 49.1,47.6 51.4,45.3 C53.7,43 53.3,40.2 53,38.2 C52.7,36.3 52.7,35.5 53.4,34.7 C54.2,33.9 55,34 56.9,34.3 C58.9,34.6 61.7,35 64,32.7 C66.3,30.4 65.9,27.6 65.6,25.6 C65.3,23.7 65.3,22.9 66,22.1 C66.8,21.3 67.6,21.4 69.5,21.7 C71.5,22 74.3,22.4 76.6,20.1 C77.4,19.3 77.4,17.9 76.6,17.1 C75.8,16.3 74.4,16.3 73.6,17.1 C72.8,17.9 72,17.8 70.1,17.5 C68.1,17.2 65.3,16.8 63,19.1 C60.7,21.4 61.1,24.2 61.4,26.2 C61.7,28.1 61.7,28.9 61,29.7 C60.2,30.5 59.4,30.4 57.5,30.1 C55.5,29.8 52.7,29.4 50.4,31.7 C48.1,34 48.5,36.8 48.8,38.8 C49.1,40.7 49.1,41.5 48.4,42.3 C47.6,43.1 46.8,43 44.9,42.7 C42.9,42.4 40.1,42 37.8,44.3 C35.5,46.6 35.9,49.4 36.2,51.4 C36.5,53.3 36.5,54.1 35.8,54.9 C35,55.7 34.2,55.6 32.3,55.3 C30.3,55 27.5,54.6 25.2,56.9 C22.9,59.2 23.3,62 23.6,64 C23.9,65.9 23.9,66.7 23.1,67.5 C22.3,68.3 21.5,68.2 19.6,68 C17.6,67.7 14.8,67.3 12.5,69.6 C11.7,70.4 11.7,71.8 12.5,72.6 C12.9,73 13.5,73.2 14,73.2 C14.5,73.2 15.1,73 15.5,72.6 C16.3,71.8 17.1,71.9 19,72.1 C21,72.4 23.8,72.8 26.1,70.5 C28.4,68.1 28,65.4 27.7,63.4 L27.7,63.4 Z" id="Shape"></path>
            </g>
        </g>
    </g>
</svg>